^C:\USERS\STUDENT\DESKTOP\WIN\1-CAT\DEBUG\1-CAT.EXE.EMBED.MANIFEST.RES|C:\USERS\STUDENT\DESKTOP\WIN\1-CAT\DEBUG\CAT.OBJ
C:\USERS\STUDENT\DESKTOP\WIN\DEBUG\1-CAT.ILK
C:\USERS\STUDENT\DESKTOP\WIN\DEBUG\1-CAT.EXE
C:\USERS\STUDENT\DESKTOP\WIN\1-CAT\DEBUG\1-CAT.EXE.INTERMEDIATE.MANIFEST
C:\USERS\STUDENT\DESKTOP\WIN\DEBUG\1-CAT.PDB
