^C:\USERS\STUDENT\DOWNLOADS\LAB09-TASKS\LAB09-TASKS\WIN\6-BARRIER\DEBUG\6-BARRIER.EXE.EMBED.MANIFEST.RES|C:\USERS\STUDENT\DOWNLOADS\LAB09-TASKS\LAB09-TASKS\WIN\6-BARRIER\DEBUG\BARRIER.OBJ
C:\PROGRAM FILES\MICROSOFT SDKS\WINDOWS\V7.0A\LIB\KERNEL32.LIB
C:\PROGRAM FILES\MICROSOFT SDKS\WINDOWS\V7.0A\LIB\USER32.LIB
C:\PROGRAM FILES\MICROSOFT SDKS\WINDOWS\V7.0A\LIB\GDI32.LIB
C:\PROGRAM FILES\MICROSOFT SDKS\WINDOWS\V7.0A\LIB\WINSPOOL.LIB
C:\PROGRAM FILES\MICROSOFT SDKS\WINDOWS\V7.0A\LIB\COMDLG32.LIB
C:\PROGRAM FILES\MICROSOFT SDKS\WINDOWS\V7.0A\LIB\ADVAPI32.LIB
C:\PROGRAM FILES\MICROSOFT SDKS\WINDOWS\V7.0A\LIB\SHELL32.LIB
C:\PROGRAM FILES\MICROSOFT SDKS\WINDOWS\V7.0A\LIB\OLE32.LIB
C:\PROGRAM FILES\MICROSOFT SDKS\WINDOWS\V7.0A\LIB\OLEAUT32.LIB
C:\PROGRAM FILES\MICROSOFT SDKS\WINDOWS\V7.0A\LIB\UUID.LIB
C:\PROGRAM FILES\MICROSOFT SDKS\WINDOWS\V7.0A\LIB\ODBC32.LIB
C:\PROGRAM FILES\MICROSOFT SDKS\WINDOWS\V7.0A\LIB\ODBCCP32.LIB
C:\USERS\STUDENT\DOWNLOADS\LAB09-TASKS\LAB09-TASKS\WIN\6-BARRIER\DEBUG\6-BARRIER.EXE.EMBED.MANIFEST.RES
C:\USERS\STUDENT\DOWNLOADS\LAB09-TASKS\LAB09-TASKS\WIN\6-BARRIER\DEBUG\BARRIER.OBJ
C:\WINDOWS\SYSTEM32\TZRES.DLL
C:\USERS\STUDENT\DOWNLOADS\LAB09-TASKS\LAB09-TASKS\WIN\DEBUG\6-BARRIER.EXE
C:\USERS\STUDENT\DOWNLOADS\LAB09-TASKS\LAB09-TASKS\WIN\DEBUG\6-BARRIER.PDB
C:\WINDOWS\GLOBALIZATION\SORTING\SORTDEFAULT.NLS
C:\PROGRAM FILES\MICROSOFT VISUAL STUDIO 10.0\VC\LIB\MSVCRTD.LIB
C:\PROGRAM FILES\MICROSOFT VISUAL STUDIO 10.0\VC\LIB\OLDNAMES.LIB
C:\PROGRAM FILES\MICROSOFT VISUAL STUDIO 10.0\VC\BIN\CVTRES.EXE
C:\PROGRAM FILES\MICROSOFT VISUAL STUDIO 10.0\VC\BIN\LINK.EXE
C:\WINDOWS\SYSTEM32\RSAENH.DLL
