^C:\USERS\STUDENT\DESKTOP\WIN\2-CRC\CRC.C|C:\USERS\STUDENT\DESKTOP\WIN\2-CRC\CRC32.C
C:\USERS\STUDENT\DESKTOP\WIN\2-CRC\DEBUG\CRC.OBJ
C:\USERS\STUDENT\DESKTOP\WIN\2-CRC\DEBUG\CRC32.OBJ
^C:\USERS\STUDENT\DESKTOP\WIN\2-CRC\CRC.C
C:\USERS\STUDENT\DESKTOP\WIN\2-CRC\DEBUG\VC100.PDB
C:\USERS\STUDENT\DESKTOP\WIN\2-CRC\DEBUG\CRC.OBJ
^C:\USERS\STUDENT\DESKTOP\WIN\2-CRC\CRC32.C
C:\USERS\STUDENT\DESKTOP\WIN\2-CRC\DEBUG\VC100.PDB
