^C:\USERS\STUDENT\DESKTOP\WIN\2-CRC\DEBUG\2-CRC.EXE.EMBED.MANIFEST.RES|C:\USERS\STUDENT\DESKTOP\WIN\2-CRC\DEBUG\CRC.OBJ|C:\USERS\STUDENT\DESKTOP\WIN\2-CRC\DEBUG\CRC32.OBJ
C:\USERS\STUDENT\DESKTOP\WIN\DEBUG\2-CRC.ILK
C:\USERS\STUDENT\DESKTOP\WIN\DEBUG\2-CRC.EXE
C:\USERS\STUDENT\DESKTOP\WIN\2-CRC\DEBUG\2-CRC.EXE.INTERMEDIATE.MANIFEST
C:\USERS\STUDENT\DESKTOP\WIN\DEBUG\2-CRC.PDB
