^C:\USERS\STUDENT\DOWNLOADS\LAB09-TASKS\LAB09-TASKS\WIN\3-INTERLOCKED\INTERLOCKED.C
C:\USERS\STUDENT\DOWNLOADS\LAB09-TASKS\LAB09-TASKS\WIN\3-INTERLOCKED\DEBUG\INTERLOCKED.OBJ
C:\USERS\STUDENT\DOWNLOADS\LAB09-TASKS\LAB09-TASKS\WIN\3-INTERLOCKED\DEBUG\VC100.PDB
