^C:\USERS\STUDENT\DOWNLOADS\LAB09-TASKS\LAB09-TASKS\WIN\1-THREADING\DEBUG\1-THREADING.EXE.EMBED.MANIFEST.RES|C:\USERS\STUDENT\DOWNLOADS\LAB09-TASKS\LAB09-TASKS\WIN\1-THREADING\DEBUG\THREADS.OBJ
C:\USERS\STUDENT\DOWNLOADS\LAB09-TASKS\LAB09-TASKS\WIN\DEBUG\1-THREADING.ILK
C:\USERS\STUDENT\DOWNLOADS\LAB09-TASKS\LAB09-TASKS\WIN\DEBUG\1-THREADING.EXE
C:\USERS\STUDENT\DOWNLOADS\LAB09-TASKS\LAB09-TASKS\WIN\1-THREADING\DEBUG\1-THREADING.EXE.INTERMEDIATE.MANIFEST
C:\USERS\STUDENT\DOWNLOADS\LAB09-TASKS\LAB09-TASKS\WIN\DEBUG\1-THREADING.PDB
