^C:\USERS\STUDENT\DOWNLOADS\LAB09-TASKS\LAB09-TASKS\WIN\2-DEBUG\DEBUG\2-DEBUG.EXE.EMBED.MANIFEST.RES|C:\USERS\STUDENT\DOWNLOADS\LAB09-TASKS\LAB09-TASKS\WIN\2-DEBUG\DEBUG\2-DEBUG.OBJ
C:\USERS\STUDENT\DOWNLOADS\LAB09-TASKS\LAB09-TASKS\WIN\DEBUG\2-DEBUG.ILK
C:\USERS\STUDENT\DOWNLOADS\LAB09-TASKS\LAB09-TASKS\WIN\DEBUG\2-DEBUG.EXE
C:\USERS\STUDENT\DOWNLOADS\LAB09-TASKS\LAB09-TASKS\WIN\2-DEBUG\DEBUG\2-DEBUG.EXE.INTERMEDIATE.MANIFEST
C:\USERS\STUDENT\DOWNLOADS\LAB09-TASKS\LAB09-TASKS\WIN\DEBUG\2-DEBUG.PDB
